{"frames": [

{
	"filename": "bullet.png",
	"frame": {"x":0,"y":0,"w":32,"h":32},
	"rotated": false,
	"trimmed": false,
	"spriteSourceSize": {"x":0,"y":0,"w":32,"h":32},
	"sourceSize": {"w":32,"h":32}
},
{
	"filename": "shadow.png",
	"frame": {"x":32,"y":0,"w":73,"h":73},
	"rotated": false,
	"trimmed": false,
	"spriteSourceSize": {"x":0,"y":0,"w":73,"h":73},
	"sourceSize": {"w":73,"h":73}
},
{
	"filename": "star.png",
	"frame": {"x":0,"y":73,"w":32,"h":32},
	"rotated": false,
	"trimmed": false,
	"spriteSourceSize": {"x":0,"y":0,"w":32,"h":32},
	"sourceSize": {"w":32,"h":32}
},
{
	"filename": "tank_green.png",
	"frame": {"x":32,"y":73,"w":62,"h":62},
	"rotated": false,
	"trimmed": false,
	"spriteSourceSize": {"x":0,"y":0,"w":62,"h":62},
	"sourceSize": {"w":62,"h":62}
},
{
	"filename": "tank_red.png",
	"frame": {"x":0,"y":135,"w":62,"h":62},
	"rotated": false,
	"trimmed": false,
	"spriteSourceSize": {"x":0,"y":0,"w":62,"h":62},
	"sourceSize": {"w":62,"h":62}
}],
"meta": {
	"app": "http://www.codeandweb.com/texturepacker",
	"version": "1.0",
	"image": "tanks.png",
	"format": "RGBA8888",
	"size": {"w":105,"h":197},
	"scale": "1",
	"smartupdate": "$TexturePacker:SmartUpdate:c49c912183cf7c33c044c65a00840f07:1603fe96b2995b18ad2e09b03e8500ff:e3ee765dcb86c37cc90e57d93acf6013$"
}
}
